{
    "class": "Радиолюбителски клас 1",
    "section": "Раздел 3 – Нормативна уредба",
    "update": "Актуализиран конспект 31.05.2022 г.",
    "questions": [
        {
            "question_number": 1,
            "question_body": "Кой има право да се яви на изпит за радиолюбителски клас 1 в Република България?",
            "correct_answer": "Б",
            "А": "Всеки, освен чуждестранните граждани",
            "Б": "Всеки притежател на клас 2 на възраст над 14 години",
            "В": "Всеки притежател на клас 2, но не по-рано от 6 месеца след придобиването му",
            "Г": "Всеки, успешно завършил курсове за радиолюбителски клас 1"
        },
        {
            "question_number": 2,
            "question_body": "За каква продължителност от време е валиден радиолюбителският клас 1?",
            "correct_answer": "Г",
            "А": "2 години",
            "Б": "5 години",
            "В": "10 години",
            "Г": "Безсрочен"
        },
        {
            "question_number": 3,
            "question_body": "Кой има право да назначава и провежда изпити за радиолюбителски клас?",
            "correct_answer": "В",
            "А": "Всеки законно регистриран радиоклуб",
            "Б": "Българската федерация на радиолюбителите",
            "В": "Комисия за регулиране на съобщенията",
            "Г": "Всички, изброени по-горе"
        },
        {
            "question_number": 4,
            "question_body": "Какъв процент от отговорите на писмения тест за радиолюбителски клас 1 трябва да са верни, за да се зачете изпитът за успешно положен?",
            "correct_answer": "В",
            "А": "Минимум 90 %",
            "Б": "Минимум 85 %",
            "В": "Минимум 80 %",
            "Г": "Минимум 75 %"
        },
        {
            "question_number": 5,
            "question_body": "Ако притежавате радиолюбителски клас 1, с колко радиопредавателя имате право да оперирате?",
            "correct_answer": "В",
            "А": "Само един",
            "Б": "Само един с изключение на радиовръзки в аварийна ситуация",
            "В": "Произволен брой",
            "Г": "Произволен брой, но при положение, че излъчват на различни обхвати"
        },
        {
            "question_number": 6,
            "question_body": "Ако позволите на гостуващ радиолюбител, който има опознавателен знак и радиолюбителският му клас е по-нисък от Вашия да работи от Вашата радиостанция, какви права има той?",
            "correct_answer": "А",
            "А": "Само правата, които позволява неговият радиолюбителски клас",
            "Б": "Всички права, произтичащи от Вашия радиолюбителски клас",
            "В": "Клас на излъчване и максимална мощност, позволени за неговия радиолюбителски клас, но в честотни обхвати, позволени за Вашия радиолюбителски клас",
            "Г": "Честотни обхвати, позволени за неговия радиолюбителски клас, но в клас на излъчване и максимална мощност, позволени за Вашия радиолюбителски клас"
        },
        {
            "question_number": 7,
            "question_body": "Може ли радиолюбител клас 1 да стане отговорник на клубна любителска радиостанция?",
            "correct_answer": "В",
            "А": "Може без ограничения",
            "Б": "Може, ако има десетгодишен стаж като радиолюбител клас 1",
            "В": "Може, ако е навършил 18 години",
            "Г": "Не може"
        },
        {
            "question_number": 8,
            "question_body": "Какви съобщения имат право да предават български радиолюбители на любителска радиостанция от друга държава?",
            "correct_answer": "Г",
            "А": "Оценка за силата на сигнала и местонахождение на станцията",
            "Б": "Персонални съобщения",
            "В": "Технически съобщения",
            "Г": "Всичките три"
        },
        {
            "question_number": 9,
            "question_body": "Какъв вид съобщения могат да се предават при международна радиолюбителска връзка?",
            "correct_answer": "А",
            "А": "Съобщения за бедствия",
            "Б": "Рекламни съобщения",
            "В": "Бизнес съобщения",
            "Г": "Няма ограничения"
        },
        {
            "question_number": 10,
            "question_body": "При какви условия радиолюбител може да приеме заплащане, за това, че неговата радиостанция е била използвана за предаване на съобщения?",
            "correct_answer": "А",
            "А": "При никакви условия",
            "Б": "Когато обслужва трафик при бедствена ситуация",
            "В": "Когато е излъчено бизнес съобщение на законно регистрирана фирма, довело до печалба",
            "Г": "Когато е излъчен радиолюбителски бюлетин"
        },
        {
            "question_number": 11,
            "question_body": "При какви условия собственикът (отговорникът) на радиолюбителски ретранслатор може да приеме обслужване на други служби чрез ретранслатора?",
            "correct_answer": "Г",
            "А": "Когато ретранслаторът се използва с понижена мощност",
            "Б": "Когато обслужва Червения кръст",
            "В": "Когато обслужва Министерството на вътрешните работи",
            "Г": "При никакви условия"
        },
        {
            "question_number": 12,
            "question_body": "Какво е СЕРТ?",
            "correct_answer": "Б",
            "А": "Радиолюбителски клас, който е международно признат по целия свят",
            "Б": "Европейска конференция по пощи и далекосъобщения",
            "В": "Вид транзистор, работещ на принципа на полевия ефект",
            "Г": "Класът на излъчване при радиовръзка на пакет (packet)"
        },
        {
            "question_number": 13,
            "question_body": "Кога любителска станция при двустранна връзка може да предаде едно съобщение по секретен начин (закодирано) с цел да запази в тайна текста на съобщението?",
            "correct_answer": "В",
            "А": "Когато предава на честота над 450 MНz",
            "Б": "По време на състезание",
            "В": "Никога",
            "Г": "По време на обявена аварийна (спешна) комуникация"
        },
        {
            "question_number": 14,
            "question_body": "Какви са ограниченията при използването на съкращения или кодове в радиолюбителска служба?",
            "correct_answer": "Б",
            "А": "Няма ограничения",
            "Б": "Те могат да бъдат използвани само ако не засекретяват значението на съобщението",
            "В": "Те не са разрешени",
            "Г": "Разрешени са съкращения, но не и кодове"
        },
        {
            "question_number": 15,
            "question_body": "Кога са разрешени кодове, които нямат общоизвестен смисъл, например петцифрови грами, при двустранна радиолюбителска връзка, проведена с български кореспондент?",
            "correct_answer": "А",
            "А": "Никога",
            "Б": "По време на състезания",
            "В": "По време на обявени национални бедствия",
            "Г": "На честоти над 2,3 GHz"
        },
        {
            "question_number": 16,
            "question_body": "Кога са разрешени кодове, които нямат общоизвестен смисъл, например петцифрови грами, при международни двустранни радиолюбителски връзки?",
            "correct_answer": "А",
            "А": "Никога",
            "Б": "По време на състезания",
            "В": "По време на обявени международни бедствия",
            "Г": "На честоти над 2,3 GHz"
        },
        {
            "question_number": 17,
            "question_body": "На кои радиолюбителски обхвати, ако такива съществуват, са разрешени пакет (packet) комуникации?",
            "correct_answer": "Б",
            "А": "Само на късовълновите",
            "Б": "На късовълновите и ултракъсовълновите",
            "В": "Само на ултракъсовълновите",
            "Г": "Пакет комуникациите са разрешени единствено чрез Интернет"
        },
        {
            "question_number": 18,
            "question_body": "Кои честоти от обхвата 28 МНz могат да се използват за ЧМ (FM) ретранслатори?",
            "correct_answer": "В",
            "А": "28,560 - 28,590 и 28,660 - 28,690 MНz",
            "Б": "29,520 - 29,550 и 29,610 - 29,650 МНz",
            "В": "29,520 - 29,590 и 29,620 - 29,690 МНz",
            "Г": "На този обхват не е разрешено ползването на ЧМ ретранслатори"
        },
        {
            "question_number": 19,
            "question_body": "Кои честоти от обхвата 144 MHz могат да се използват за ЧМ ретранслатори?",
            "correct_answer": "А",
            "А": "144,975 - 145,194 и 145,575 - 145,7935 МНz",
            "Б": "144,500 - 144,800 и 145,600 - 145,900 MHz",
            "В": "144,000 - 144,200 и 144,600 - 144,800 MHz",
            "Г": "145,600 - 145,700 и 145,900 - 146,000 MHz"
        },
        {
            "question_number": 20,
            "question_body": "Кои честоти от обхвата 432 MHz могат да се използват за ЧМ ретранслатори?",
            "correct_answer": "Б",
            "А": "432,000 - 432,375 и 433,600 - 433,975 MHz",
            "Б": "433,000 - 433,375 и 434,600 - 434,975 MHz",
            "В": "434,000 - 434,375 и 435,600 - 435,975 MHz",
            "Г": "На този обхват не е разрешено ползването на ЧМ ретранслатори"
        },
        {
            "question_number": 21,
            "question_body": "Кои са границите на радиолюбителския обхват 10 MHz?",
            "correct_answer": "Г",
            "А": "10,000 - 10,150 MHz",
            "Б": "10,000 - 10,250 MHz",
            "В": "10,000 - 10,500 MHz",
            "Г": "10,100 - 10,150 MHz"
        },
        {
            "question_number": 22,
            "question_body": "Кои са границите на радиолюбителския обхват 14 MHz?",
            "correct_answer": "Б",
            "А": "14,000 - 14,250 MHz",
            "Б": "14,000 - 14,350 MHz",
            "В": "14,000 - 14,500 MHz",
            "Г": "14,000 - 14,700 MHz"
        },
        {
            "question_number": 23,
            "question_body": "Кои са границите на радиолюбителския обхват 18 MHz?",
            "correct_answer": "Г",
            "А": "18,000 - 18,200 MHz",
            "Б": "18,000 - 18,168 MHz",
            "В": "18,068 - 18,150 MHz",
            "Г": "18,068 - 18,168 MHz"
        },
        {
            "question_number": 24,
            "question_body": "Кои са границите на радиолюбителския обхват 21 MHz?",
            "correct_answer": "В",
            "А": "21,000 - 21,250 MHz",
            "Б": "21,000 - 21,350 MHz",
            "В": "21,000 - 21,450 MHz",
            "Г": "21,100 - 21,168 MHz"
        },
        {
            "question_number": 25,
            "question_body": "Кои са границите на радиолюбителския обхват 24 MHz?",
            "correct_answer": "Б",
            "А": "24,000 - 24,150 MHz",
            "Б": "24,890 - 24,990 MHz",
            "В": "24,000 - 24,990 MHz",
            "Г": "24,790 - 24,990 MHz"
        },
        {
            "question_number": 26,
            "question_body": "Ако притежавате клас 1, на коя от честотите нямате право да излъчвате?",
            "correct_answer": "В",
            "А": "10,110 MHz",
            "Б": "24,930 MHz",
            "В": "51,200 MHz",
            "Г": "Имате право на всичките три честоти"
        },
        {
            "question_number": 27,
            "question_body": "Ако притежавате клас 1, на коя от честотите нямате право да излъчвате?",
            "correct_answer": "Б",
            "А": "28,350 MHz",
            "Б": "147,000 MHz",
            "В": "436,325 MHz",
            "Г": "3525 kHz"
        },
        {
            "question_number": 28,
            "question_body": "Каква е максималната мощност на предавателя, разрешена за радиолюбител клас 1 на обхвата 10 MHz?",
            "correct_answer": "В",
            "А": "50 W",
            "Б": "100 W",
            "В": "350 W",
            "Г": "1000 W"
        },
        {
            "question_number": 29,
            "question_body": "Каква е максималната мощност на предавателя, разрешена за радиолюбител клас 1 на обхвата 5 MHz?",
            "correct_answer": "Б",
            "А": "50 W",
            "Б": "100 W",
            "В": "350 W",
            "Г": "1000 W"
        },
        {
            "question_number": 30,
            "question_body": "Каква е максималната мощност на предавателя, разрешена за радиолюбител клас 1 на обхвата 1296 MHz?",
            "correct_answer": "А",
            "А": "50 W",
            "Б": "100 W",
            "В": "350 W",
            "Г": "1000 W"
        },
        {
            "question_number": 31,
            "question_body": "Каква е максималната мощност на предавателя, разрешена за радиолюбител клас 1 на обхвата 10000 MHz?",
            "correct_answer": "А",
            "А": "1 W",
            "Б": "50 W",
            "В": "100 W",
            "Г": "350 W"
        },
        {
            "question_number": 32,
            "question_body": "С какъв вид на емисията има право да работи радиолюбител клас 1 на честота 1857 kHz?",
            "correct_answer": "А",
            "А": "CW и SSB",
            "Б": "Само Packet",
            "В": "Любителска телевизия (АТV)",
            "Г": "Няма право да излъчва на тази честота"
        },
        {
            "question_number": 33,
            "question_body": "С какъв вид на емисията има право да работи радиолюбител клас 1 на честота 18,037 МHz?",
            "correct_answer": "Г",
            "А": "Само CW",
            "Б": "Само Packet",
            "В": "Всички видове емисия (класове на излъчване)",
            "Г": "Няма право да излъчва на тази честота"
        },
        {
            "question_number": 34,
            "question_body": "С какъв вид на емисията има право да работи радиолюбител клас 1 на честота 21,137 МHz?",
            "correct_answer": "В",
            "А": "Само CW",
            "Б": "Само Packet",
            "В": "Всички видове емисия (класове на излъчване)",
            "Г": "Няма право да излъчва на тази честота"
        },
        {
            "question_number": 35,
            "question_body": "Каква е максималната мощност, която една любителска станция може да използва на честота 10100 kHz?",
            "correct_answer": "Б",
            "А": "100 W",
            "Б": "350 W",
            "В": "1000 W",
            "Г": "Честотата е извън радиолюбителския обхват"
        },
        {
            "question_number": 36,
            "question_body": "Каква е максималната мощност, която един радиолюбител клас 1 може да използва на честота 50110 kHz?",
            "correct_answer": "А",
            "А": "100 W",
            "Б": "350 W",
            "В": "1000 W",
            "Г": "Честотата е извън радиолюбителския обхват"
        },
        {
            "question_number": 37,
            "question_body": "Каква е максималната мощност, която един радиолюбител клас 1 може да използва на 10110 kHz?",
            "correct_answer": "Б",
            "А": "10 dBW",
            "Б": "25,4 dBW",
            "В": "30 dBW",
            "Г": "Честотата е извън радиолюбителския обхват"
        },
        {
            "question_number": 38,
            "question_body": "Каква е максималната мощност, която един радиолюбител клас 1 може да използва на 5270 kHz?",
            "correct_answer": "Б",
            "А": "10 dBW",
            "Б": "20 dBW",
            "В": "30 dBW",
            "Г": "Честотата е извън радиолюбителския обхват"
        },
        {
            "question_number": 39,
            "question_body": "Каква е максималната мощност, която един радиолюбител клас 1 може да използва на 50180 kHz?",
            "correct_answer": "Б",
            "А": "7 dBW",
            "Б": "20 dBW",
            "В": "30 dBW",
            "Г": "Честотата е извън радиолюбителския обхват"
        },
        {
            "question_number": 40,
            "question_body": "Може ли радиолюбител да използва радиопредавател с изходна мощност по-висока от 350 W на 14000 kHz?",
            "correct_answer": "В",
            "А": "Само за експериментални цели или при участие в радиолюбителски състезания",
            "Б": "Ако притежава любителски клас 1, стаж минимум 5 г. и преди това е предоставил на Комисията за регулиране на съобщенията данни за използваната любителска радиостанция",
            "В": "Когато са налични условията посочени в горните две точки",
            "Г": "Не може"
        },
        {
            "question_number": 41,
            "question_body": "С какъв клас на излъчване има право да работи радиолюбител клас 1 на честота 10,153 МHz?",
            "correct_answer": "Г",
            "А": "Само CW",
            "Б": "Само Packet",
            "В": "Всички класове на излъчване",
            "Г": "Няма право да излъчва на тази честота"
        },
        {
            "question_number": 42,
            "question_body": "Ако притежавате клас 1, на коя от честотите нямате право да излъчвате?",
            "correct_answer": "В",
            "А": "14,280 MHz",
            "Б": "24,930 MHz",
            "В": "70,619 MHz",
            "Г": "Имате право на всичките три честоти"
        },
        {
            "question_number": 43,
            "question_body": "С какъв клас на излъчване има право да работи радиолюбител клас 1 на честота 5700,000 МHz?",
            "correct_answer": "В",
            "А": "Само CW",
            "Б": "Само Packet",
            "В": "Всички класове на излъчване",
            "Г": "Няма право да излъчва на тази честота"
        },
        {
            "question_number": 44,
            "question_body": "Какво е клас на излъчване А3F?",
            "correct_answer": "Г",
            "А": "Факсимилие",
            "Б": "Телеграфия",
            "В": "Телефония с честотна модулация",
            "Г": "Телевизия"
        },
        {
            "question_number": 45,
            "question_body": "Какъв е класът на излъчване, когато АМ предавател се модулира с телевизионен сигнал?",
            "correct_answer": "А",
            "А": "А3F",
            "Б": "А3С",
            "В": "F3F",
            "Г": "F3С"
        },
        {
            "question_number": 46,
            "question_body": "Какво е клас на излъчване F3F?",
            "correct_answer": "Г",
            "А": "Факсимилие",
            "Б": "Модулирана телеграфия",
            "В": "Телефония с честотна модулация",
            "Г": "Телевизия с бавна развивка"
        },
        {
            "question_number": 47,
            "question_body": "Какъв е класът на излъчване, когато ЧМ предавател се модулира с телевизионен сигнал?",
            "correct_answer": "В",
            "А": "А3F",
            "Б": "А3С",
            "В": "F3F",
            "Г": "F3С"
        },
        {
            "question_number": 48,
            "question_body": "На кой (кои) от ултракъсовълновите обхвати има определена лента за спътникова ретранслация?",
            "correct_answer": "А",
            "А": "На всички",
            "Б": "На всички без 10 000 MHz",
            "В": "Само на 144 и 432 MHz",
            "Г": "На нито един"
        },
        {
            "question_number": 49,
            "question_body": "Какъв вид любителска станция предава еднопосочна информация?",
            "correct_answer": "Б",
            "А": "Ретранслаторна станция",
            "Б": "Радиолюбителски фар",
            "В": "Късовълнова станция",
            "Г": "Свръхвисокочестотна станция"
        },
        {
            "question_number": 50,
            "question_body": "При какви обстоятелства, ако такива съществуват, любителска радиостанция има право автоматично да ретранслира радиосигнали от други любителски радиостанции?",
            "correct_answer": "Б",
            "А": "Само ако собственикът й присъства",
            "Б": "Само ако е любителски ретранслатор",
            "В": "Само с разрешението на Българската федерация на радиолюбителите",
            "Г": "Няма право при никакви обстоятелства"
        },
        {
            "question_number": 51,
            "question_body": "Какво се разбира под автоматична ретранслация?",
            "correct_answer": "А",
            "А": "Ретранслиращата радиостанция се задейства от приемания радиосигнал",
            "Б": "Ретранслиращата радиостанция се задейства от сигнал по телефонна линия",
            "В": "Ретранслиращата радиостанция се задейства от обслужващия оператор",
            "Г": "Ретранслиращата радиостанция се задейства от опознавателния знак, предаден по кода на Морз"
        },
        {
            "question_number": 52,
            "question_body": "Какво означава „работа през ретранслатор“?",
            "correct_answer": "Г",
            "А": "Радиолюбителска радиостанция препредава съобщението от кореспондента си на трета радиостанция",
            "Б": "Апаратура за дистанционен контрол на изнесен (отдалечен) радиопредавател",
            "В": "Другото популярно име на ”работа през ретранслатор” е симплексна радиовръзка",
            "Г": "Радиовръзка, при която сигналите на радиостанцията автоматично се препредават"
        },
        {
            "question_number": 53,
            "question_body": "Кой има право да ползва любителски ретранслатор, собственост на частно лице?",
            "correct_answer": "В",
            "А": "Само собственикът",
            "Б": "Всички радиолюбители, притежаващи опознавателен знак, писмено разрешение от собственика и изпълняващи условията на Правилата за използване на радиочестотен спектър за радиосъоръжения от любителска радиослужба (Правилата)",
            "В": "Всички радиолюбители, притежаващи опознавателен знак, изпълняващи условията на Правилата",
            "Г": "Не е позволено частни лица да изграждат любителски ретранслатори"
        },
        {
            "question_number": 54,
            "question_body": "Кой представлява българските радиолюбители пред Международния радиолюбителски съюз (IARU)?",
            "correct_answer": "Б",
            "А": "Комисията за регулиране на съобщенията",
            "Б": "Българската федерация на радиолюбителите",
            "В": "Радиолюбителите членуват в Международния радиолюбителски съюз (IARU) индивидуално",
            "Г": "Никой, тъй като България все още не членува в Международния радиолюбителски съюз (IARU)"
        },
        {
            "question_number": 55,
            "question_body": "Какви права дава СЕРТ лицензията на притежателя й?",
            "correct_answer": "В",
            "А": "Да упражнява радиолюбителска дейност в Република България",
            "Б": "Да упражнява радиолюбителска дейност във всяка държава на Европа",
            "В": "Да упражнява временно радиолюбителска дейност в европейските държави, приели препоръките на СЕРТ и в държавите, присъединили се към решенията на СЕРТ",
            "Г": "Да упражнява радиолюбителска дейност във всички държави, членки на Международния радиолюбителски съюз (IARU)"
        },
        {
            "question_number": 56,
            "question_body": "Каква радиостанция има право да използва притежателят на СЕРТ лицензия извън територията на Република България?",
            "correct_answer": "Г",
            "А": "Само носима и подвижна (мобилна)",
            "Б": "Само стационарна",
            "В": "Само носима",
            "Г": "Няма ограничения"
        },
        {
            "question_number": 57,
            "question_body": "Какви права дава притежанието на НАREC сертификат?",
            "correct_answer": "В",
            "А": "Да упражнява радиолюбителска дейност във всички държави, членки на Международния радиолюбителски съюз (IARU)",
            "Б": "Да упражнява радиолюбителска дейност във всяка държава на Европа",
            "В": "Да получи национална лицензия от администрацията на държава, членка на СЕРТ, при пребиваване там за срок по-дълъг от 3 месеца",
            "Г": "Да получи национална лицензия от администрацията на коя и да е европейска държава при пребиваване там за срок по-дълъг от 3 месеца"
        }
    ]
}

